/home/mk/workspace.JAZ/JAZ-Lab3-Zaliczenie/src/main/java/domain/CalculatorApplication.java
/home/mk/workspace.JAZ/JAZ-Lab3-Zaliczenie/src/main/java/domain/CalculatorParameters.java
/home/mk/workspace.JAZ/JAZ-Lab3-Zaliczenie/src/main/java/services/CalculatorService.java
